﻿Raspberry Pi,Frame Setup Time,Frame Reshaping Time,Blur Time,Interpolation Time
"Zero W, no case",1.6,11.6,3.9,65.1
"Zero W, with case",1.7,11.9,4.0,64.3
"3B, no case",1.4,9.7,4.8,64.0
"3B, with case",1.4,9.8,4.9,64.0
"3B+, no case",1.6,10.1,5.0,64.2
"3B+, with case",1.5,9.7,4.8,63.1